,housing_units,median_home_value,median_household_income,occupied_housing_units,population,population_density,state,zipcode
0,9941,1000001,151469,9479,25209,2106.0,CA,90274
1,15347,340600,42465,14700,61386,13301.0,CA,91732
2,12396,454500,79140,11944,33249,1318.0,CA,91750
3,10351,319100,100243,9945,35000,3262.0,CA,92508
4,748,28800,14946,651,1932,2235.0,CA,92401
5,14697,640000,86043,13862,32463,4244.0,CA,92649
6,15510,196900,62592,14439,50320,2676.0,CA,92557
7,17172,364300,40658,16075,44789,10836.0,CA,90043
8,18306,279800,46515,12507,26179,714.0,CA,92262
9,15288,453400,53635,14476,45527,8625.0,CA,90065
10,16236,945900,118860,15618,41804,3093.0,CA,90275
11,5863,160000,39932,5210,12251,172.0,CA,95954
12,17456,442900,58889,16532,50231,5341.0,CA,91304
13,30688,873100,52641,28534,48581,8405.0,CA,90046
14,16204,494900,78745,15785,47993,7835.0,CA,90630
15,14244,518000,77526,8830,17220,646.0,CA,92270
16,17140,245700,43246,10677,19383,371.0,CA,92264
17,24278,776300,37976,22547,62180,20400.0,CA,90004
18,8114,162600,52505,7575,30815,5247.0,CA,92551
19,2296,173000,52194,1502,3810,31.0,CA,92536
20,6421,200700,65339,5767,20769,539.0,CA,92344
21,24754,222500,56373,23413,84519,2830.0,CA,92503
22,17948,628700,76082,17183,44383,8379.0,CA,90503
23,13061,161400,39291,11563,31638,255.0,CA,92220
24,14553,247200,75147,13283,43400,1457.0,CA,92584
25,9563,1000001,132254,8669,21741,2147.0,CA,90210
26,18860,341000,64004,17768,54096,3585.0,CA,92057
27,18604,335400,47715,17515,62068,9872.0,CA,92801
28,16658,345800,32447,15493,49310,17028.0,CA,90018
29,16769,251400,51495,15845,55857,4100.0,CA,91762
30,24896,337100,49637,23650,76615,12543.0,CA,90706
31,17150,286800,41842,16168,48606,10275.0,CA,90047
32,8399,428700,96418,8095,24740,2953.0,CA,91737
33,15708,704100,75681,14109,34464,4330.0,CA,92672
34,11718,488100,57630,11193,32742,7224.0,CA,91754
35,27713,448400,52409,26223,89747,8975.0,CA,92683
36,13631,292000,68275,12614,38272,2324.0,CA,92591
37,8002,144800,36080,7198,20384,64.0,CA,95965
38,9788,456400,44570,9177,24628,12059.0,CA,91411
39,12824,217000,57433,10937,34630,131.0,CA,93561
40,2006,942500,155275,1967,5781,2719.0,CA,92861
41,13551,510000,78077,13062,35533,3372.0,CA,92821
42,7127,116200,31288,6468,26214,6407.0,CA,92411
43,19394,330100,51805,18087,51165,5715.0,CA,91786
44,14414,239000,86026,13542,40829,241.0,CA,93311
45,14316,439600,56479,13617,42399,8607.0,CA,90241
46,11742,559000,66250,10723,24229,8210.0,CA,91106
47,23547,269300,30171,22168,103892,24240.0,CA,90011
48,12233,1000001,83550,10355,21649,6557.0,CA,92663
49,6499,255100,67321,5672,16675,2110.0,CA,92587
50,13510,280100,55426,12739,31957,96.0,CA,95973
51,13322,420700,88415,12772,32605,2107.0,CA,91355
52,11943,135500,41398,10060,25095,228.0,CA,92284
53,11873,425500,56980,10869,20460,15445.0,CA,91101
54,19391,604100,80619,18861,56004,6181.0,CA,92708
55,10362,570200,91878,9850,29291,4374.0,CA,92653
56,629,803000,75076,233,535,5.0,CA,92305
57,16562,444100,65330,15849,51767,7087.0,CA,92833
58,10975,646400,91100,10409,25851,3405.0,CA,91364
59,4196,651200,59813,2880,6314,82.0,CA,93428
60,7201,390200,61751,6559,19244,279.0,CA,93444
61,25758,145200,42421,23542,78715,960.0,CA,92345
62,11155,409500,77495,10794,31499,7349.0,CA,90712
63,16038,269500,60971,15368,56913,1951.0,CA,91761
64,32600,397500,45995,31087,93193,13920.0,CA,90250
65,,,,,,,,
66,19785,385200,47438,19027,62549,7367.0,CA,90640
67,14572,254100,44934,13882,54099,11547.0,CA,90723
68,11431,327400,43042,10684,29415,15537.0,CA,90302
69,14994,76500,26909,12838,33555,1899.0,CA,92543
70,23339,348400,68107,14709,37262,1066.0,CA,92253
71,5113,780300,88837,4837,10917,3698.0,CA,91024
72,9702,580400,73151,9180,24939,5053.0,CA,91504
73,13044,568100,68953,11549,27522,4526.0,CA,92612
74,9153,212000,45473,4086,10162,330.0,CA,92314
75,18034,361600,49231,17042,51558,6340.0,CA,91406
76,8460,391400,59754,8016,24752,8796.0,CA,92832
77,15236,401600,81722,14821,49012,6217.0,CA,90638
78,12521,716200,85530,11198,25756,5056.0,CA,92629
79,21018,382100,50996,19892,62430,13444.0,CA,90042
80,14567,497300,94335,14167,38232,5568.0,CA,90808
81,15095,714000,82411,14431,44706,3868.0,CA,92705
82,,,,,,,,
83,3573,360000,52013,3427,9947,2119.0,CA,90248
84,17392,464200,48638,15970,37180,14028.0,CA,91601
85,13175,300200,41331,12495,53908,16486.0,CA,92701
86,14929,1000001,139259,14038,35135,8926.0,CA,90266
87,19384,154400,37175,17369,58271,2040.0,CA,92404
88,5215,572100,85100,5072,15554,8582.0,CA,90623
89,11393,526800,97079,11107,36422,771.0,CA,93021
90,22497,416400,65804,21452,67619,4863.0,CA,90631
91,8026,228400,40707,7520,31869,12465.0,CA,90222
92,12444,531700,67035,11428,28413,152.0,CA,93420
93,11667,249900,72005,9220,25605,1462.0,CA,92203
94,4159,1000001,156440,3777,9741,1321.0,CA,92657
95,14723,511100,36979,13883,38617,28359.0,CA,90029
96,17192,269700,78880,15914,53892,2650.0,CA,92563
97,17984,144200,38770,15291,39457,1228.0,CA,92545
98,12851,198300,36675,11143,16012,4570.0,CA,92637
99,18109,565900,99314,17516,47222,4793.0,CA,92692
100,15916,207700,65692,14532,43605,1005.0,CA,92223
101,9214,354200,51871,8880,26669,8956.0,CA,90249
102,26686,551500,44327,24956,67869,16063.0,CA,90026
103,9122,463800,54569,8760,27496,8847.0,CA,91755
104,13763,633100,80936,13028,32940,4008.0,CA,91107
105,24146,322300,88355,22466,72492,746.0,CA,92592
106,18210,552000,76548,16697,39499,5308.0,CA,91367
107,23390,793200,47993,21929,45151,5464.0,CA,90027
108,23271,283700,87116,22223,88419,3555.0,CA,92336
109,25319,727800,66744,23985,55277,11231.0,CA,90066
110,6337,149400,41099,5632,16097,67.0,CA,96021
111,22839,548500,58167,21761,61510,9688.0,CA,92627
112,7360,385100,84905,7055,27198,1946.0,CA,92860
113,25554,662200,99101,24425,63297,3791.0,CA,92677
114,6933,604700,127906,6669,21944,2311.0,CA,92694
115,14293,697000,103385,13749,38486,5466.0,CA,92620
116,20863,752500,82564,19453,45317,5645.0,CA,92648
117,13246,599200,91623,12891,43079,2756.0,CA,91789
118,16127,661700,77893,15224,39480,3681.0,CA,90045
119,13294,374700,58217,12687,43497,9559.0,CA,90242
120,16212,992700,79736,14261,28341,11359.0,CA,90291
121,9033,1000001,129750,7174,18116,168.0,CA,90265
122,9738,332600,93511,9163,29301,526.0,CA,92883
123,11995,556700,91755,11668,37184,4001.0,CA,92869
124,16255,663000,108008,15722,46564,3162.0,CA,92886
125,18097,1000001,110854,16657,35482,2362.0,CA,90049
126,2571,144500,35896,2198,6220,223.0,CA,92372
127,2867,924800,118750,2612,6368,318.0,CA,90290
128,20785,476200,84871,20094,59182,6214.0,CA,92630
129,12051,740200,69956,11358,23484,6467.0,CA,91403
130,13521,325100,46508,12765,45786,9604.0,CA,90032
131,18374,355600,62529,16255,43714,105.0,CA,93446
132,16354,1000001,111109,15158,34797,3566.0,CA,92660
133,10246,720000,120219,9862,29309,2509.0,CA,92673
134,27646,282000,44070,26056,93524,12692.0,CA,90805
135,,,,,,,,
136,8271,362600,80092,8050,25990,4456.0,CA,90746
137,14041,574700,52570,13261,33065,5621.0,CA,91206
138,13889,460600,62517,13311,45406,3138.0,CA,91748
139,16205,181100,49942,14664,50216,932.0,CA,92530
140,16224,301100,55495,15455,59705,353.0,CA,91702
141,10638,139100,35935,9623,19815,2806.0,CA,92586
142,14781,696700,75451,13364,20483,9688.0,CA,90069
143,16645,458800,76663,16188,54013,4217.0,CA,91745
144,20452,328000,71402,19448,67917,2638.0,CA,92882
145,15613,162500,43472,13928,39837,427.0,CA,92308
146,10982,284000,46580,10393,36975,6637.0,CA,92083
147,9702,979000,129708,9303,25709,963.0,CA,91302
148,10612,438000,70111,10236,32414,4885.0,CA,91791
149,9808,612400,55415,9170,19131,14122.0,CA,90814
150,7197,394000,100404,6925,29855,275.0,CA,91384
151,19516,456900,64680,18508,57741,8258.0,CA,92780
152,24158,332900,51266,22855,74363,11328.0,CA,91335
153,14303,286000,51211,12830,23729,2704.0,CA,90740
154,16655,675600,101575,16009,40071,11120.0,CA,90278
155,19834,232800,39465,17992,58002,2870.0,CA,92507
156,24024,283700,62856,22811,66925,4624.0,CA,91730
157,14481,119200,33682,11490,34722,949.0,CA,92240
158,6049,234400,81807,5465,18644,1031.0,CA,92532
159,9061,400400,54065,8717,25457,10797.0,CA,90710
160,9051,139200,53993,7930,33237,1218.0,CA,92394
161,9711,435100,85742,9447,27925,8228.0,CA,90713
162,16248,317000,78236,15411,44001,2716.0,CA,92506
163,9140,646200,97723,8783,24010,3985.0,CA,92835
164,9200,482600,100120,8934,25938,2846.0,CA,91784
165,12939,941100,72701,11821,21397,11350.0,CA,90048
166,27210,637100,56946,25592,57964,18621.0,CA,90034
167,17896,296200,31334,16425,58911,18360.0,CA,90813
168,3518,712400,86858,3371,7827,4955.0,CA,90056
169,23009,331700,70768,21952,80358,3736.0,CA,91710
170,22069,290900,75053,20415,62079,568.0,CA,92562
171,20376,153300,42825,18967,73722,7277.0,CA,92553
172,19234,423400,84216,18650,54366,1650.0,CA,93063
173,10534,404600,57500,9987,27585,553.0,CA,91042
174,13072,358400,42998,12184,42399,12327.0,CA,90806
175,9687,432700,60785,9322,36457,10698.0,CA,92706
176,13256,487300,71645,12452,31481,5391.0,CA,90807
177,20512,208500,56517,19232,75196,2418.0,CA,92509
178,1272,90800,32500,1168,4985,329.0,CA,95365
179,11142,718500,80183,10652,31715,5019.0,CA,91006
180,13559,480600,94368,12990,34617,661.0,CA,93012
181,13026,214500,44209,12533,55431,2025.0,CA,93458
182,9946,600000,66652,9277,17473,8535.0,CA,91602
183,9604,129200,37936,8516,28873,6113.0,CA,92405
184,13498,227500,43592,12741,49328,7138.0,CA,90220
185,15675,324700,69602,14889,41684,386.0,CA,93455
186,17999,235500,62198,16874,54923,2161.0,CA,92346
187,7527,178800,48276,7116,30830,2805.0,CA,92316
188,,,,,,,,
189,11910,123900,39382,9242,23911,17.0,CA,92277
190,5524,237000,79611,5348,19989,1958.0,CA,92377
191,19118,289800,37651,18419,75066,20189.0,CA,90255
192,13462,1000001,95865,11254,23881,1227.0,CA,92651
193,17442,342100,38847,16256,51145,15457.0,CA,91405
194,13850,530600,77378,13180,30778,6106.0,CA,91505
195,7131,262300,82832,6531,23172,379.0,CA,92596
196,17444,449600,77604,16872,51747,3153.0,CA,91344
197,11610,871300,81035,10845,24815,256.0,CA,93105
198,23058,669100,73478,21228,42147,16402.0,CA,90025
199,,,,,,,,
200,8245,429100,27393,7420,18986,11100.0,CA,90015
201,8556,495300,97081,8315,24474,3042.0,CA,91307
202,,,,,,,,
203,5788,1000001,132520,5552,14372,2523.0,CA,91436
204,11848,389400,80538,9909,27732,6748.0,CA,93035
205,15496,294600,45224,14480,36511,265.0,CA,95928
206,22799,297500,49446,15037,31753,1118.0,CA,92260
207,17221,141700,43726,15275,44734,330.0,CA,92544
208,25116,617300,42043,23344,64458,16578.0,CA,90019
209,8256,353300,59198,7972,26074,3704.0,CA,91010
210,23071,274300,43404,19853,39347,6069.0,CA,90802
211,14846,682100,81772,14244,36678,6330.0,CA,90505
212,8623,286400,54440,8176,34188,10112.0,CA,91340
213,20048,224000,58420,18611,52606,992.0,CA,92399
214,11892,340000,56079,11215,34882,1348.0,CA,91321
215,16066,131800,35892,14038,39341,2215.0,CA,93534
216,9311,365500,94389,8963,30991,1120.0,CA,92881
217,24160,292100,42776,23278,94396,12922.0,CA,90280
218,19948,346100,56737,12515,24294,1614.0,CA,92211
219,13867,238900,64896,12896,40267,2150.0,CA,92374
220,20468,332600,58463,19569,88123,11919.0,CA,92704
221,645,451300,60759,552,1384,15.0,CA,93432
222,9451,387700,54277,9060,32845,7330.0,CA,92841
223,16829,192300,51471,15519,56689,901.0,CA,92407
224,24967,322400,59329,23543,91725,1665.0,CA,91342
225,4052,1000001,68589,3706,8434,12042.0,CA,90211
226,14573,225900,57063,13754,47672,3900.0,CA,92505
227,10919,587800,90414,10551,30356,4022.0,CA,91214
228,9926,454800,107654,9522,28722,3292.0,CA,91354
229,13628,569300,79650,13284,44515,5608.0,CA,92867
230,14224,81300,27324,12838,49410,6011.0,CA,92410
231,8771,414200,77198,8508,26184,4200.0,CA,91724
232,22370,162300,44550,20541,81516,6031.0,CA,92376
233,12414,423600,78509,11941,33119,2316.0,CA,91773
234,5746,238100,49780,4766,11062,33.0,CA,95338
235,17619,380400,54166,16802,60254,10193.0,CA,91343
236,10751,730800,142803,10497,32611,1442.0,CA,92679
237,5165,93600,51238,4065,14038,180.0,CA,93505
238,22946,118000,44399,20672,72046,279.0,CA,93535
239,7099,1000001,156557,6859,20280,1711.0,CA,91011
240,18062,838600,97158,16910,35293,9850.0,CA,90277
241,12692,487700,59199,11911,26898,5372.0,CA,91316
242,9815,1000001,159696,9212,22986,1007.0,CA,90272
243,6968,496400,87308,6575,12132,4235.0,CA,90293
244,13285,550000,85108,12663,36126,4368.0,CA,91001
245,12321,367000,49099,11533,42709,9397.0,CA,92802
246,23615,476200,96497,22940,74796,2188.0,CA,91709
247,13351,360400,77765,12997,38976,5361.0,CA,91701
248,13564,315000,57384,12684,59492,11832.0,CA,92707
249,12812,525800,35144,11928,28917,18460.0,CA,90038
250,22961,137200,38316,20864,74929,382.0,CA,93550
251,3882,580800,124471,3766,11248,1147.0,CA,92610
252,6048,540000,58002,5762,14885,7705.0,CA,92866
253,15409,505400,82805,14836,39733,5579.0,CA,90815
254,6937,306300,59016,6743,30485,5473.0,CA,91746
255,15006,447500,38210,13841,32327,8801.0,CA,90008
256,24246,174000,42943,22772,95397,5506.0,CA,92335
257,17685,160600,41198,16209,56505,1915.0,CA,92324
258,5944,195900,61782,5424,17797,877.0,CA,92585
259,8288,124100,42799,5747,24310,41.0,CA,92225
260,17258,414000,47373,16588,62097,9668.0,CA,91770
261,10890,450200,103203,10526,34794,1184.0,CA,91739
262,16120,474800,98821,15530,43792,4018.0,CA,92688
263,14125,179900,56477,12714,37630,222.0,CA,92307
264,16702,523100,92710,16244,47582,5404.0,CA,92691
265,19711,463400,97931,18977,49046,5961.0,CA,92656
266,2030,119000,28594,1622,3588,46.0,CA,92256
267,9559,680600,109675,9208,25488,748.0,CA,91301
268,11336,380900,98112,10991,33348,1968.0,CA,91350
269,11828,572000,66158,11318,34332,8966.0,CA,91780
270,9076,520000,59682,8492,27480,5122.0,CA,91103
271,15547,525400,88819,15039,46457,2456.0,CA,91765
272,19932,963400,54373,17903,47452,16154.0,CA,90024
273,11540,904200,84579,10968,25403,6350.0,CA,90064
274,3532,465800,80884,3291,9153,104.0,CA,93465
275,17788,220100,56108,16657,53778,2298.0,CA,92504
276,9504,359500,66718,9154,30854,8031.0,CA,91792
277,15364,505900,55138,14610,43180,7678.0,CA,90501
278,10617,221500,33962,9596,40952,12359.0,CA,90059
279,11370,394500,28879,10327,31103,9618.0,CA,90012
280,6170,1000001,83679,5567,11555,12096.0,CA,90212
281,4605,223300,55526,3642,8842,119.0,CA,95726
282,6506,371500,57926,5976,14318,492.0,CA,93402
283,20116,433300,67860,19128,50474,2453.0,CA,93003
284,17493,493000,78730,16914,52033,7661.0,CA,92870
285,17204,358000,37242,16145,47596,13123.0,CA,90016
286,5853,221900,41738,5445,15493,51.0,CA,95963
287,28083,315500,60770,27130,105549,10761.0,CA,90650
288,13680,393600,77526,13268,45113,7058.0,CA,90620
289,4157,265200,58924,1704,3926,143.0,CA,92549
290,9973,596600,92989,9464,24748,5599.0,CA,92614
291,12750,756600,73615,12033,34095,6134.0,CA,91007
292,15338,368200,61834,14775,54083,10397.0,CA,92840
293,12326,362800,65570,11932,39407,9248.0,CA,90604
294,3888,1000001,168036,3615,9377,1279.0,CA,90077
295,10020,454800,58663,9289,27669,6301.0,CA,91324
296,7937,965800,111307,7574,20184,1523.0,CA,92603
297,2518,99500,39709,2175,6643,676.0,CA,92548
298,14389,357500,61112,13635,45061,10889.0,CA,91306
299,12454,704700,70759,11686,29458,4016.0,CA,91356
300,12431,530400,88240,11868,35705,2379.0,CA,91711
301,17144,243400,80663,15963,50798,695.0,CA,93551
302,8125,358100,69780,7611,25404,7857.0,CA,92868
303,5911,230300,47603,4463,11213,117.0,CA,95451
304,13793,371100,83484,12871,40328,814.0,CA,91387
305,10531,311600,71153,10036,32362,3381.0,CA,91351
306,13344,556700,71235,12883,31766,7048.0,CA,90230
307,9709,302700,49269,9289,36735,5486.0,CA,90810
308,6926,689200,125265,6699,20006,2226.0,CA,92887
309,16355,376500,100452,15528,58763,2380.0,CA,92880
310,9330,101400,33046,8408,32967,220.0,CA,95341
311,5412,318800,60352,5192,18496,5705.0,CA,91345
312,15373,824000,88579,14292,29034,5636.0,CA,91604
313,18629,255600,49725,17708,71599,7043.0,CA,91766
314,10020,224100,62507,9308,29851,1418.0,CA,92595
315,3586,515400,63250,3385,8415,11185.0,CA,91020
316,13901,952100,67500,12326,22286,2925.0,CA,90068
317,570,303600,60750,507,1229,5.0,CA,93653
318,15787,755300,74011,14876,30991,7103.0,CA,91423
319,4830,598300,84286,2602,4677,358.0,CA,92210
320,14062,321700,52830,13254,36981,1793.0,CA,95401
321,6722,1000001,116270,6082,12478,4888.0,CA,92625
322,9851,228500,69804,9335,37849,2718.0,CA,92337
323,9470,95700,37565,8132,32725,192.0,CA,92301
324,15680,330900,71854,15210,57251,6897.0,CA,90745
325,19641,601000,77127,18535,49341,5128.0,CA,92626
326,14033,631600,104715,13563,36045,1837.0,CA,91362
327,17356,144000,58667,15571,54858,1470.0,CA,92392
328,1182,645000,113478,1154,3613,332.0,CA,92823
329,11044,117700,39588,9634,30236,1063.0,CA,92583
330,381,396700,119063,342,3369,352.0,CA,91708
331,6098,133900,48451,5370,16763,120.0,CA,92371
332,25616,294900,48111,24622,82999,7087.0,CA,91911
333,13526,158900,50598,12339,52516,2328.0,CA,92571
334,10162,1000001,101655,9550,19506,13665.0,CA,90254
335,18682,691700,72653,17318,32031,8013.0,CA,90803
336,20958,179400,44440,17019,51151,3251.0,CA,92234
337,13378,545400,52730,12499,28033,401.0,CA,93401
338,11763,228300,73994,10798,39076,484.0,CA,92555
339,3168,645900,91042,2949,5464,8942.0,CA,90094
340,17126,593900,30953,14964,28714,18838.0,CA,90028
341,4404,373400,71077,4172,11074,5081.0,CA,90755
342,7538,603900,105144,7300,20039,3943.0,CA,92808
343,23780,283000,51477,22465,103689,11713.0,CA,91331
344,25717,362600,53293,24363,85914,12265.0,CA,92804
345,23411,109700,33711,21275,82658,595.0,CA,93307
346,4431,253900,43376,3668,8637,93.0,CA,93644
347,23542,158300,47593,21654,58409,5487.0,CA,93309
348,27479,269400,29870,25144,89779,17478.0,CA,90044
349,7927,520200,71914,7555,18904,7726.0,CA,91506
350,11276,150700,40864,10173,30805,648.0,CA,95348
351,2920,208100,56132,2640,9459,321.0,CA,92567
352,,,,,,,,
353,9025,297000,64409,8417,30047,1992.0,CA,91752
354,12844,416100,59315,11698,37173,4810.0,CA,92806
355,12744,388800,65657,11865,31375,525.0,CA,93422
356,6749,358600,49936,6494,24307,11433.0,CA,92844
357,8724,373800,66880,8376,25356,5094.0,CA,91740
358,10422,159600,56163,9690,38158,787.0,CA,93552
359,3654,160900,43839,3285,7788,728.0,CA,92320
360,5398,1000001,119539,4443,11112,524.0,CA,93108
361,7991,438400,72777,7632,25876,8789.0,CA,90240
362,11116,820200,85058,10466,25616,7511.0,CA,91030
363,13177,290800,50824,12667,65445,16036.0,CA,92703
364,9502,330900,47484,8697,26855,12413.0,CA,91303
365,12185,357200,65432,11654,41691,2624.0,CA,93036
366,12620,338300,48844,11985,47807,4097.0,CA,91352
367,6742,472500,106190,6369,19786,138.0,CA,91390
368,14585,703200,100441,12654,21576,10583.0,CA,90292
369,12206,611800,99230,11770,33708,4131.0,CA,91326
370,16480,98800,35059,14981,48731,6416.0,CA,93304
371,12642,165800,47779,11546,33931,854.0,CA,95340
372,20625,593500,75599,19847,57245,7387.0,CA,92647
373,15411,225300,50270,14449,54086,6756.0,CA,91764
374,13409,465900,61216,12515,34204,5724.0,CA,92831
375,17325,423600,61067,15962,46239,490.0,CA,92028
376,607,89000,36544,478,1239,17.0,CA,92282
377,2609,1000001,90357,1854,3744,5749.0,CA,92661
378,13670,584700,67068,12922,36751,9664.0,CA,91104
379,2565,195300,63281,2092,5498,560.0,CA,95467
380,9795,278700,33192,9155,32821,16973.0,CA,90062
381,14940,361700,65649,13868,33423,821.0,CA,92373
382,11549,418600,69375,11027,31974,2818.0,CA,90601
383,13151,363800,66402,12751,44907,7779.0,CA,91790
384,12005,522000,75551,11452,34731,1008.0,CA,92675
385,16620,337000,44693,15830,47487,12649.0,CA,90247
386,15854,139000,38084,14021,42400,2479.0,CA,92395
387,7287,186800,48234,6535,20970,3678.0,CA,92501
388,15370,1000001,75717,14376,27186,10272.0,CA,90405
389,18804,349300,53532,17599,70401,11167.0,CA,92805
390,8738,760600,101146,8374,20438,610.0,CA,91361
391,9433,554400,82550,9126,25824,1743.0,CA,91741
392,14520,253800,49881,13691,48068,8552.0,CA,91767
393,12256,182600,39934,11156,28764,47.0,CA,96080
394,21947,592100,84144,21235,55224,6863.0,CA,92646
395,3274,290900,55163,3092,9156,61.0,CA,95694
396,5711,484200,90417,5460,14382,1780.0,CA,92010
397,17192,271400,26796,15869,62276,21941.0,CA,90037
398,938,62800,33333,797,2550,168.0,CA,92230
399,6406,356600,65481,6105,20388,11990.0,CA,90715
400,2658,218400,55313,2080,5077,29.0,CA,93225
401,713,174300,64611,623,1699,11.0,CA,93243
402,10803,394900,54126,10304,35153,8487.0,CA,90621
403,12387,155500,48103,11250,37073,595.0,CA,95301
404,9833,251200,50220,9450,36375,7034.0,CA,91763
405,5329,220500,46551,4667,11661,102.0,CA,93614
406,1392,348600,58190,1212,2899,5.0,CA,93453
407,10066,327300,34088,2224,5094,401.0,CA,92315
408,16499,474600,85479,15623,42901,1938.0,CA,93010
409,16385,270100,39216,15419,37725,4931.0,CA,95926
410,19211,285900,57291,18648,85040,9675.0,CA,91744
411,,,,,,,,
412,4661,160300,58051,4101,15649,846.0,CA,92582
413,569,205200,63750,494,1623,5.0,CA,93461
414,2517,66000,22917,1249,2632,15.0,CA,92285
415,14030,842500,75863,12814,28418,13808.0,CA,90035
416,1011,173000,36875,661,1441,15.0,CA,95916
417,12368,237100,42853,11630,53704,10072.0,CA,90221
418,8848,288600,49294,8510,29945,11110.0,CA,90680
419,18067,285500,51232,17504,76571,5699.0,CA,91706
420,10450,335900,66268,10079,34409,8330.0,CA,91722
421,1808,928600,90972,1510,2424,7387.0,CA,90067
422,3652,247100,41910,3515,14184,15233.0,CA,90716
423,8594,282300,58700,7787,21559,4417.0,CA,92354
424,6761,268100,37082,6554,27372,21694.0,CA,90270
425,8451,414200,49873,7980,25777,6947.0,CA,90602
426,7410,736500,84341,7085,16654,3049.0,CA,90245
427,22620,216000,70577,20964,70918,292.0,CA,93536
428,8881,621200,99778,8555,23032,6849.0,CA,92782
429,12893,551300,98027,12560,36171,3376.0,CA,92807
430,17900,511800,38510,16514,38967,34475.0,CA,90020
431,3058,220300,54792,2819,8103,486.0,CA,92359
432,5419,366400,40714,5001,11371,8521.0,CA,91502
433,,,,,,,,
434,261,289300,2499,131,295,43.0,CA,93669
435,12598,216100,31258,11731,51223,16728.0,CA,90002
436,12488,485800,59646,11825,32417,6724.0,CA,91325
437,15792,340600,42672,14556,40311,19061.0,CA,90804
438,21640,728400,97694,20696,51939,6488.0,CA,95125
439,1904,119100,25458,1392,3104,63.0,CA,95458
440,17999,811100,104967,16923,36565,3462.0,CA,94611
441,4645,232300,64129,4399,12025,3448.0,CA,92313
442,3107,201400,65794,2489,6379,60.0,CA,92342
443,5343,125500,42338,4070,9647,107.0,CA,92252
444,5809,155600,40327,5148,23833,88.0,CA,93610
445,1995,521500,69821,1819,4746,274.0,CA,92003
446,7007,423500,90477,6788,20063,6136.0,CA,90603
447,12127,600000,64080,11436,28514,7563.0,CA,90039
448,24282,442800,91686,23533,72508,2291.0,CA,93065
449,14903,163600,41365,13451,53697,552.0,CA,92570
450,14899,458300,36906,14089,37810,19995.0,CA,91205
451,8567,621300,81613,8227,23988,7830.0,CA,91775
452,13621,209100,41179,12475,27549,467.0,CA,95969
453,8931,328200,61800,8633,32396,8564.0,CA,90606
454,884,252800,53594,771,1909,43.0,CA,93601
455,8887,447600,58320,8520,21318,10767.0,CA,90717
456,,,,,,,,
457,1436,52700,52569,1056,3074,32.0,CA,93523
458,15360,597900,78911,14706,41130,6706.0,CA,94066
459,11265,367300,51991,10846,45214,11574.0,CA,92843
460,8764,710800,103309,8413,22871,2190.0,CA,92602
461,9998,535500,63770,9513,27425,7595.0,CA,90041
462,15515,556000,93042,14823,42402,2919.0,CA,91360
463,17924,426200,49534,15218,40375,3381.0,CA,92054
464,13148,158300,42555,11789,30643,166.0,CA,95966
465,9346,564100,40697,8647,35440,404.0,CA,93405
466,1464,724800,42516,1325,3660,68.0,CA,92590
467,5751,472100,89693,5626,16333,7463.0,CA,92845
468,15946,591800,89113,15604,49399,5626.0,CA,90703
469,24940,271300,37267,24104,101279,17060.0,CA,90201
470,8077,516400,92862,7202,16366,773.0,CA,92618
471,16345,633600,31893,15044,37681,34761.0,CA,90005
472,6166,360000,64735,5933,14853,6404.0,CA,90305
473,19179,279100,40186,18194,69817,18733.0,CA,91402
474,15266,273300,40831,14669,69745,14431.0,CA,90262
475,2152,241300,46345,1876,4426,218.0,CA,95665
476,4015,184400,44034,3640,10810,139.0,CA,95948
477,13788,249600,35097,12971,57110,16306.0,CA,90001
478,14012,273400,38441,13260,55758,17038.0,CA,90063
479,13151,104600,46279,11229,31894,128.0,CA,92311
480,17106,330000,57605,16564,62928,8120.0,CA,90660
481,2442,174200,38564,1876,4734,36.0,CA,92539
482,15172,923800,71424,13970,24525,17180.0,CA,90403
483,20991,685700,90960,19649,49121,2911.0,CA,92024
484,14684,307700,41920,13999,53815,6455.0,CA,90744
485,3397,326100,47758,3317,12520,2243.0,CA,90040
486,12493,482700,47368,11776,38475,11300.0,CA,91776
487,6659,441200,85057,6342,19704,5384.0,CA,92865
488,7732,414200,69312,7359,20372,2484.0,CA,91040
489,8546,97500,25460,6138,15585,442.0,CA,95422
490,4562,1000001,140703,4415,13361,3505.0,CA,91108
491,17127,231700,29686,15642,66266,18660.0,CA,90003
492,7646,330500,41622,7290,26176,11799.0,CA,90303
493,3094,772900,88926,2692,6279,33.0,CA,93924
494,4324,169200,36504,3924,15271,1438.0,CA,92408
495,23914,440700,50210,22044,59662,6492.0,CA,90731
496,15289,506100,46420,14380,39285,11377.0,CA,91401
497,10094,582100,89071,9722,26853,7960.0,CA,92604
498,,,,,,,,
499,640,945900,85556,562,1391,687.0,CA,91008
500,11338,423700,88930,10717,27088,969.0,CA,94510
501,3872,266100,46463,1491,3297,68.0,CA,96137
502,22207,157100,41335,18219,61827,2729.0,CA,92201
503,2477,364300,45577,2337,8337,13220.0,CA,92655
504,12393,268700,50912,11602,36448,85.0,CA,93454
505,6596,490400,51010,5084,10789,241.0,CA,93442
506,1012,167900,31687,818,1899,15.0,CA,95947
507,15676,363400,42521,14903,44958,13491.0,CA,91606
508,8590,615300,50107,8150,22781,9647.0,CA,91201
509,12565,280800,38160,11895,36568,14760.0,CA,90301
510,11986,516700,72194,11580,32102,7213.0,CA,90504
511,1462,294100,55670,1258,3779,7.0,CA,93451
512,8381,260600,47228,7885,34537,3993.0,CA,91768
513,9853,423700,67616,9537,23057,3366.0,CA,92119
514,716,237500,61563,389,885,84.0,CA,92339
515,2111,1000001,78750,1526,2756,13233.0,CA,92662
516,4283,782700,91005,4097,10506,2312.0,CA,91207
517,474,83900,27885,347,1113,40.0,CA,92368
518,8010,751900,92780,7789,21751,3550.0,CA,90720
519,12799,615200,63449,11600,27649,2682.0,CA,92008
520,14380,263100,62529,13622,46745,4653.0,CA,92879
521,365,163700,41583,290,708,22.0,CA,95345
522,9250,483600,80172,8611,21115,6143.0,CA,90732
523,14021,438500,78414,13425,36557,1140.0,CA,91311
524,10385,491000,55659,9894,30322,9285.0,CA,91803
525,8021,632600,86500,7671,21495,4434.0,CA,92606
526,6342,714000,92532,6106,16245,2354.0,CA,91208
527,1113,113000,24250,827,1868,2.0,NM,87036
528,19494,234900,90495,18470,56741,3729.0,CA,93312
529,3243,678800,68066,2781,7248,5277.0,CA,92624
530,10897,357100,67482,10527,40331,7136.0,CA,90605
531,4359,212700,50504,4096,27080,133.0,CA,93960
532,23820,378400,81505,22978,73343,5788.0,CA,92126
533,4616,342800,55525,4393,14866,1757.0,CA,90670
534,1291,246900,62688,1079,2932,26.0,CA,93532
535,10297,341100,40692,9918,43896,6570.0,CA,91733
536,17268,387100,57350,16498,45096,5331.0,CA,92111
537,4715,402700,59946,4553,16591,10178.0,CA,90701
538,16199,339100,43301,15357,56343,10312.0,CA,91605
539,6848,585900,116420,6636,20158,536.0,CA,91381
540,7516,312200,20271,6416,11772,17546.0,CA,90013
541,2857,247800,65469,1998,4894,475.0,CA,92397
542,17439,577700,107870,17009,51536,3662.0,CA,92129
543,8381,348400,36614,8007,29591,7758.0,CA,91731
544,17696,265700,53400,17065,82728,2821.0,CA,93033
545,15781,491100,71733,15029,40598,4784.0,CA,91016
546,10879,385400,51777,10429,34924,13031.0,CA,90260
547,5939,340500,63721,5717,18010,8059.0,CA,90502
548,20332,392100,30961,18617,59185,30829.0,CA,90006
549,,,,,,,,
550,2954,427300,85096,2729,7993,111.0,CA,93510
551,6672,367300,61348,6296,18275,7877.0,CA,91723
552,5704,846600,109922,5213,11254,3047.0,CA,91105
553,17713,294800,38925,17023,67179,15334.0,CA,90022
554,17051,304100,52242,16159,53881,854.0,CA,92027
555,7367,124100,59142,6469,18910,119.0,CA,93560
556,8345,189000,81474,7927,23058,392.0,AZ,85747
557,14290,414100,52407,12933,32990,161.0,CA,93001
558,12983,430500,66567,12147,27187,708.0,CA,95409
559,13841,594100,56635,12859,27927,11448.0,CA,91607
560,861,460000,97717,795,1945,29.0,CA,92676
561,5147,312400,57971,4840,17334,226.0,CA,93015
562,5587,589400,65859,3835,7657,766.0,CA,93449
563,1233,70400,35872,910,2299,119.0,CA,93516
564,,,,,,,,
565,8686,599100,56740,8235,20849,5255.0,CA,91501
566,2382,514300,51359,2014,3800,8309.0,CA,90010
567,5945,1000001,140139,5301,12250,6113.0,CA,90402
568,7385,256400,33476,6892,26872,10094.0,CA,90061
569,17034,369700,54441,15990,42906,2569.0,CA,92078
570,,,,,,,,
571,10865,622000,59695,10089,21360,10723.0,CA,90404
572,9968,137900,41467,9090,41083,1877.0,CA,92236
573,2537,654700,55956,1466,2972,41.0,CA,93430
574,8824,303700,52814,7578,23641,2103.0,CA,93041
575,20521,468500,53027,19315,52735,12101.0,CA,91801
576,4990,345200,16551,4109,7005,24737.0,CA,90014
577,5297,635100,128218,5158,13811,2609.0,CA,91377
578,7487,365800,94665,7070,24659,3242.0,CA,91915
579,3036,239200,43367,2532,7173,427.0,CA,93445
580,12038,132300,37280,11231,49068,517.0,CA,93638
581,14538,362800,51158,13899,46369,2818.0,CA,92069
582,17247,282600,28035,15658,44998,50810.0,CA,90057
583,,,,,,,,
584,4682,676800,62794,4188,6722,7917.0,CA,90401
585,1778,284300,41875,1315,3171,25.0,CA,93643
586,18178,359500,55839,17058,48922,1315.0,CA,92026
587,4815,191600,29443,4415,10031,53.0,CA,96097
588,956,159000,40274,856,2942,25.0,CA,95333
589,700,291900,37391,600,2030,44.0,CA,95374
590,,,,,,,,
591,3528,135600,46010,3295,13018,713.0,CA,95315
592,16752,495800,93750,16164,47904,1170.0,CA,92064
593,21739,480700,85945,20759,61148,3715.0,CA,94538
594,19920,945000,71589,18646,36865,14922.0,CA,90036
595,714,177400,45914,584,1378,56.0,CA,95919
596,14493,650700,60929,13601,28651,9106.0,CA,92107
597,8322,834800,82075,7807,19330,3426.0,CA,92106
598,10610,417600,21030,9338,23768,32725.0,CA,90017
599,1582,161500,26336,1164,2673,804.0,CA,95464
